\relax 
\providecommand\hyper@newdestlabel[2]{}
\citation{p-np}
\@writefile{toc}{\contentsline {chapter}{\numberline {4}Algorithms}{15}{chapter.4}\protected@file@percent }
\@writefile{lof}{\addvspace {10\p@ }}
\@writefile{lot}{\addvspace {10\p@ }}
\newlabel{chapter4}{{4}{15}{Algorithms}{chapter.4}{}}
\@writefile{toc}{\contentsline {section}{\numberline {4.1}Formalising Problems}{15}{section.4.1}\protected@file@percent }
\citation{arnborg}
\citation{lin-time-algo}
\@writefile{toc}{\contentsline {section}{\numberline {4.2}Complexity Classes}{16}{section.4.2}\protected@file@percent }
\@setckpt{./chapters/chapter4}{
\setcounter{page}{17}
\setcounter{equation}{0}
\setcounter{enumi}{0}
\setcounter{enumii}{0}
\setcounter{enumiii}{0}
\setcounter{enumiv}{0}
\setcounter{footnote}{0}
\setcounter{mpfootnote}{0}
\setcounter{part}{0}
\setcounter{chapter}{4}
\setcounter{section}{2}
\setcounter{subsection}{0}
\setcounter{subsubsection}{0}
\setcounter{paragraph}{0}
\setcounter{subparagraph}{0}
\setcounter{figure}{0}
\setcounter{table}{0}
\setcounter{@pps}{0}
\setcounter{@ppsavesec}{0}
\setcounter{@ppsaveapp}{0}
\setcounter{parentequation}{0}
\setcounter{Item}{0}
\setcounter{Hfootnote}{0}
\setcounter{bookmark@seq@number}{19}
\setcounter{caption@flags}{0}
\setcounter{ContinuedFloat}{0}
\setcounter{subfigure}{0}
\setcounter{subtable}{0}
\setcounter{float@type}{4}
\setcounter{section@level}{0}
\setcounter{thm}{5}
}
