\relax 
\providecommand\hyper@newdestlabel[2]{}
\citation{bm08}
\@writefile{toc}{\contentsline {chapter}{\numberline {2}Cops and Robbers - Rules}{7}{chapter.2}\protected@file@percent }
\@writefile{lof}{\addvspace {10\p@ }}
\@writefile{lot}{\addvspace {10\p@ }}
\newlabel{chapter2}{{2}{7}{Cops and Robbers - Rules}{chapter.2}{}}
\@writefile{toc}{\contentsline {section}{\numberline {2.1}An Informal Description}{7}{section.2.1}\protected@file@percent }
\@writefile{toc}{\contentsline {section}{\numberline {2.2}Preliminary Definitions}{7}{section.2.2}\protected@file@percent }
\citation{min-max}
\citation{min-max}
\@writefile{toc}{\contentsline {section}{\numberline {2.3}Formal Rules of the Game}{8}{section.2.3}\protected@file@percent }
\citation{die05}
\@writefile{toc}{\contentsline {section}{\numberline {2.4}Implications of Graph Classes}{9}{section.2.4}\protected@file@percent }
\newlabel{cn_leq_path}{{2.4.3}{9}{}{thm.2.4.3}{}}
\newlabel{cn_path}{{2.4.4}{9}{}{thm.2.4.4}{}}
\@setckpt{./chapters/chapter2}{
\setcounter{page}{11}
\setcounter{equation}{0}
\setcounter{enumi}{0}
\setcounter{enumii}{0}
\setcounter{enumiii}{0}
\setcounter{enumiv}{0}
\setcounter{footnote}{0}
\setcounter{mpfootnote}{0}
\setcounter{part}{0}
\setcounter{chapter}{2}
\setcounter{section}{4}
\setcounter{subsection}{0}
\setcounter{subsubsection}{0}
\setcounter{paragraph}{0}
\setcounter{subparagraph}{0}
\setcounter{figure}{0}
\setcounter{table}{0}
\setcounter{@pps}{0}
\setcounter{@ppsavesec}{0}
\setcounter{@ppsaveapp}{0}
\setcounter{parentequation}{0}
\setcounter{Item}{0}
\setcounter{Hfootnote}{0}
\setcounter{bookmark@seq@number}{12}
\setcounter{caption@flags}{0}
\setcounter{ContinuedFloat}{0}
\setcounter{subfigure}{0}
\setcounter{subtable}{0}
\setcounter{float@type}{4}
\setcounter{section@level}{0}
\setcounter{thm}{6}
}
