\relax 
\providecommand\hyper@newdestlabel[2]{}
\@writefile{toc}{\contentsline {chapter}{\numberline {1}Introduction}{1}{chapter.1}\protected@file@percent }
\@writefile{lof}{\addvspace {10\p@ }}
\@writefile{lot}{\addvspace {10\p@ }}
\newlabel{chapter1}{{1}{1}{Introduction}{chapter.1}{}}
\@writefile{toc}{\contentsline {section}{\numberline {1.1}Objectives}{1}{section.1.1}\protected@file@percent }
\@writefile{toc}{\contentsline {subsection}{\numberline {1.1.1}Schedule}{1}{subsection.1.1.1}\protected@file@percent }
\gtt@chartextrasize{0}{141.35289pt}
\@writefile{toc}{\contentsline {subsection}{\numberline {1.1.2}Ethical Considerations}{2}{subsection.1.1.2}\protected@file@percent }
\@writefile{toc}{\contentsline {section}{\numberline {1.2}Fundamental Definitions}{2}{section.1.2}\protected@file@percent }
\@writefile{toc}{\contentsline {section}{\numberline {1.3}Simple Results}{3}{section.1.3}\protected@file@percent }
\newlabel{bound_edges}{{1.3.4}{4}{}{thm.1.3.4}{}}
\@writefile{toc}{\contentsline {section}{\numberline {1.4}Special Classes of Graph}{4}{section.1.4}\protected@file@percent }
\newlabel{complete_edges}{{1.4.10}{6}{}{thm.1.4.10}{}}
\@setckpt{./chapters/chapter1}{
\setcounter{page}{7}
\setcounter{equation}{0}
\setcounter{enumi}{0}
\setcounter{enumii}{0}
\setcounter{enumiii}{0}
\setcounter{enumiv}{0}
\setcounter{footnote}{0}
\setcounter{mpfootnote}{0}
\setcounter{part}{0}
\setcounter{chapter}{1}
\setcounter{section}{4}
\setcounter{subsection}{0}
\setcounter{subsubsection}{0}
\setcounter{paragraph}{0}
\setcounter{subparagraph}{0}
\setcounter{figure}{0}
\setcounter{table}{0}
\setcounter{@pps}{0}
\setcounter{@ppsavesec}{0}
\setcounter{@ppsaveapp}{0}
\setcounter{parentequation}{0}
\setcounter{Item}{0}
\setcounter{Hfootnote}{0}
\setcounter{bookmark@seq@number}{7}
\setcounter{caption@flags}{0}
\setcounter{ContinuedFloat}{0}
\setcounter{subfigure}{0}
\setcounter{subtable}{0}
\setcounter{float@type}{4}
\setcounter{section@level}{0}
\setcounter{thm}{10}
}
