\relax 
\providecommand\hyper@newdestlabel[2]{}
\citation{min-max}
\citation{lapaugh}
\@writefile{toc}{\contentsline {chapter}{\numberline {3}Tree Width}{11}{chapter.3}\protected@file@percent }
\@writefile{lof}{\addvspace {10\p@ }}
\@writefile{lot}{\addvspace {10\p@ }}
\newlabel{chapter3}{{3}{11}{Tree Width}{chapter.3}{}}
\@writefile{toc}{\contentsline {section}{\numberline {3.1}Introduction}{11}{section.3.1}\protected@file@percent }
\newlabel{treedec_defn}{{3.1.2}{11}{}{thm.3.1.2}{}}
\citation{wiki-treedec}
\citation{min-max}
\newlabel{treedec_ex}{{3.1.5}{12}{}{thm.3.1.5}{}}
\@writefile{toc}{\contentsline {section}{\numberline {3.2}Effects on Cops and Robbers}{12}{section.3.2}\protected@file@percent }
\newlabel{copnum_treewidth}{{3.2.1}{12}{}{thm.3.2.1}{}}
\citation{die05}
\@writefile{toc}{\contentsline {section}{\numberline {3.3}An Equivalent Definition}{13}{section.3.3}\protected@file@percent }
\newlabel{clique_defn}{{3.3.1}{13}{}{thm.3.3.1}{}}
\@setckpt{./chapters/chapter3}{
\setcounter{page}{15}
\setcounter{equation}{0}
\setcounter{enumi}{0}
\setcounter{enumii}{0}
\setcounter{enumiii}{0}
\setcounter{enumiv}{0}
\setcounter{footnote}{0}
\setcounter{mpfootnote}{0}
\setcounter{part}{0}
\setcounter{chapter}{3}
\setcounter{section}{3}
\setcounter{subsection}{0}
\setcounter{subsubsection}{0}
\setcounter{paragraph}{0}
\setcounter{subparagraph}{0}
\setcounter{figure}{0}
\setcounter{table}{0}
\setcounter{@pps}{0}
\setcounter{@ppsavesec}{0}
\setcounter{@ppsaveapp}{0}
\setcounter{parentequation}{0}
\setcounter{Item}{0}
\setcounter{Hfootnote}{0}
\setcounter{bookmark@seq@number}{16}
\setcounter{caption@flags}{0}
\setcounter{ContinuedFloat}{0}
\setcounter{subfigure}{0}
\setcounter{subtable}{0}
\setcounter{float@type}{4}
\setcounter{section@level}{0}
\setcounter{thm}{4}
}
